,Date,Open,High,Low,Close,Volume
0,2020-05-28 12:54:00,9407.75,9409.15,9400.1,9404.92,88.610546
1,2020-05-28 12:55:00,9404.11,9419.42,9403.83,9418.53,101.841663
2,2020-05-28 12:56:00,9418.7,9440.0,9418.7,9435.0,232.28434
3,2020-05-28 12:57:00,9435.0,9435.97,9423.37,9426.72,138.574148
4,2020-05-28 12:58:00,9427.5,9432.0,9421.82,9421.82,89.018748
5,2020-05-28 12:59:00,9423.02,9428.17,9421.15,9423.62,66.070822
6,2020-05-28 13:00:00,9423.62,9452.09,9423.62,9440.23,386.474375
7,2020-05-28 13:01:00,9438.38,9444.0,9427.25,9433.53,216.455495
8,2020-05-28 13:02:00,9433.53,9440.0,9400.0,9406.9,282.202978
9,2020-05-28 13:03:00,9406.9,9417.16,9406.86,9408.87,180.049726
10,2020-05-28 13:04:00,9408.72,9415.21,9408.56,9413.16,93.848901
11,2020-05-28 13:05:00,9413.18,9415.48,9408.14,9409.02,54.415106
12,2020-05-28 13:06:00,9409.03,9410.31,9390.61,9395.91,205.666219
13,2020-05-28 13:07:00,9394.32,9404.96,9392.2,9404.96,173.374939
14,2020-05-28 13:08:00,9404.96,9409.15,9401.0,9402.0,62.410913
15,2020-05-28 13:09:00,9401.01,9404.16,9378.86,9393.18,205.44374
16,2020-05-28 13:10:00,9393.93,9400.24,9393.5,9396.91,100.384449
17,2020-05-28 13:11:00,9396.58,9398.15,9388.45,9390.0,73.35665
18,2020-05-28 13:12:00,9390.0,9394.0,9375.86,9387.57,146.476959
19,2020-05-28 13:13:00,9387.57,9399.99,9387.57,9393.5,66.994069
20,2020-05-28 13:14:00,9393.96,9395.93,9388.3,9390.63,70.196925
21,2020-05-28 13:15:00,9390.63,9396.86,9389.58,9394.04,65.311225
22,2020-05-28 13:16:00,9394.04,9396.86,9386.81,9388.84,76.73562
23,2020-05-28 13:17:00,9388.85,9395.69,9388.85,9391.38,40.221584
24,2020-05-28 13:18:00,9391.38,9395.75,9390.99,9395.75,51.605953
25,2020-05-28 13:19:00,9395.75,9405.25,9395.74,9404.08,84.759779
26,2020-05-28 13:20:00,9404.72,9406.26,9395.0,9397.46,125.267518
27,2020-05-28 13:21:00,9397.92,9406.17,9397.72,9402.26,41.109566
28,2020-05-28 13:22:00,9403.49,9403.56,9400.11,9401.3,23.964773
29,2020-05-28 13:23:00,9401.3,9405.78,9398.32,9403.11,72.883487
30,2020-05-28 13:24:00,9403.28,9405.4,9399.04,9399.69,20.20011
31,2020-05-28 13:25:00,9399.97,9403.42,9399.01,9401.8,25.062167
32,2020-05-28 13:26:00,9401.8,9407.95,9401.0,9406.11,78.367407
33,2020-05-28 13:27:00,9406.37,9406.37,9398.0,9398.25,48.058527
34,2020-05-28 13:28:00,9398.91,9401.25,9397.01,9399.68,34.282884
35,2020-05-28 13:29:00,9399.67,9399.69,9392.28,9396.47,52.916945
36,2020-05-28 13:30:00,9396.49,9400.0,9395.78,9398.37,70.779255
37,2020-05-28 13:31:00,9398.69,9407.14,9397.73,9401.27,115.31485
38,2020-05-28 13:32:00,9401.96,9402.5,9395.92,9397.73,55.536058
39,2020-05-28 13:33:00,9397.53,9399.4,9394.33,9398.51,51.898106
40,2020-05-28 13:34:00,9398.51,9403.75,9398.12,9402.91,83.115795
41,2020-05-28 13:35:00,9402.46,9416.0,9400.89,9411.18,86.677931
42,2020-05-28 13:36:00,9410.91,9414.72,9406.97,9411.92,57.126279
43,2020-05-28 13:37:00,9411.9,9412.05,9405.0,9405.92,27.959239
44,2020-05-28 13:38:00,9405.92,9409.25,9404.21,9405.47,32.22121
45,2020-05-28 13:39:00,9405.4,9407.39,9403.46,9405.01,36.998975
46,2020-05-28 13:40:00,9405.01,9408.78,9404.95,9408.43,30.179532
47,2020-05-28 13:41:00,9408.43,9410.52,9402.66,9410.01,38.542325
48,2020-05-28 13:42:00,9410.01,9411.52,9405.69,9410.47,54.539986
49,2020-05-28 13:43:00,9409.93,9409.94,9400.04,9402.02,65.527233
50,2020-05-28 13:44:00,9402.18,9407.01,9400.0,9400.01,82.513992
51,2020-05-28 13:45:00,9400.01,9402.75,9400.0,9401.19,30.099153
52,2020-05-28 13:46:00,9401.2,9403.91,9396.9,9397.44,70.237832
53,2020-05-28 13:47:00,9397.56,9408.72,9397.56,9404.95,125.582538
54,2020-05-28 13:48:00,9404.95,9404.95,9400.0,9400.0,46.178824
55,2020-05-28 13:49:00,9400.06,9405.0,9400.04,9402.32,27.894966
56,2020-05-28 13:50:00,9402.85,9405.0,9400.0,9400.01,77.665988
57,2020-05-28 13:51:00,9400.0,9403.95,9398.25,9402.15,49.710021
58,2020-05-28 13:52:00,9402.22,9409.84,9400.36,9407.1,61.785226
59,2020-05-28 13:53:00,9407.81,9408.79,9406.78,9408.4,2.364299
